import javax.swing.JButton;

@SuppressWarnings("serial")
public class Card extends JButton{
    private int id;
    private boolean matched = false;


    public void setId(int id){
        this.id = id;
    }

    public int getId(){
        return this.id;
    }


    public void setMatched(boolean matched){
        this.matched = matched;
    }

    public boolean getMatched(){
        return this.matched;
    }
}
Board.java:

import javax.swing.JFrame;
import javax.swing.JOptionPane;
import javax.swing.Timer;
import java.awt.*;
import java.awt.event.*;
import java.util.ArrayList;
import java.util.List;
import java.util.Collections;

@SuppressWarnings("serial")
public class Board extends JFrame{


    private List<Card> cards;
    private Card selectedCard;
    private Card c1;
    private Card c2;
    private Timer t;

    public Board(){

        int pairs = 10;
        List<Card> cardsList = new ArrayList<Card>();
        List<Integer> cardVals = new ArrayList<Integer>();

        for (int i = 0; i < pairs; i++){
            cardVals.add(i);
            cardVals.add(i);
        }
        Collections.shuffle(cardVals);

        for (int val : cardVals){
            Card c = new Card();
            c.setId(val);
            c.addActionListener(new ActionListener(){
                public void actionPerformed(ActionEvent ae){
                    selectedCard = c;
                    doTurn();
                }
            });
            cardsList.add(c);
        }
        this.cards = cardsList;
        //set up the timer
        t = new Timer(750, new ActionListener(){
            public void actionPerformed(ActionEvent ae){
                checkCards();
            }
        });

        t.setRepeats(false);

        //set up the board itself
        Container pane = getContentPane();
        pane.setLayout(new GridLayout(4, 5));
        for (Card c : cards){
            pane.add(c);
        }
        setTitle("Memory Match");
    }

    public void doTurn(){
        if (c1 == null && c2 == null){
            c1 = selectedCard;
            c1.setText(String.valueOf(c1.getId()));
        }

        if (c1 != null && c1 != selectedCard && c2 == null){
            c2 = selectedCard;
            c2.setText(String.valueOf(c2.getId()));
            t.start();

        }
    }

    public void checkCards(){
        if (c1.getId() == c2.getId()){//match condition
            c1.setEnabled(false); //disables the button
            c2.setEnabled(false);
            c1.setMatched(true); //flags the button as having been matched
            c2.setMatched(true);
            if (this.isGameWon()){
                JOptionPane.showMessageDialog(this, "You win!");
                System.exit(0);
            }
        }

        else{
            c1.setText(""); //'hides' text
            c2.setText("");
        }
        c1 = null; //reset c1 and c2
        c2 = null;
    }

    public boolean isGameWon(){
        for(Card c: this.cards){
            if (c.getMatched() == false){
                return false;
            }
        }
        return true;
    }

}
Game.java:

import java.awt.Dimension;
import javax.swing.JFrame;


public class Game{
    public static void main(String[] args){
        Board b = new Board();
        b.setPreferredSize(new Dimension(500,500)); //need to use this instead of setSize
        b.setLocation(500, 250);
        b.setDefaultCloseOperation(JFrame.EXIT_ON_CLOSE);
        b.pack();
        b.setVisible(true);
    }   
}

https://codereview.stackexchange.com/questions/85833/basic-memory-match-game-in-java